E-cig craving project
…
split <- initial_split(df2, 
                       prop = 0.7, 
                       strata = "ecig_craving")

train<- training(split)
test<- testing(split)

#creating a recipe for the supervised machine learning model
rec<- 
  recipe(ecig_craving~  ., data = df2) %>%
  step_dummy(all_nominal_predictors())

bake(prep(rec, train), new_data = train)

## # A tibble: 1,337 x 119
##    R01_AE1022   BMI ecig_craving               R01_AC1002_X.2.~ R01_AC1003_X.2.~
##         <dbl> <dbl> <fct>                                 <dbl>            <dbl>
##  1         NA  29.2 (1) 1 = Not true of me at~                0                0
##  2         NA  26.6 (1) 1 = Not true of me at~                0                0
##  3          1  28.3 (1) 1 = Not true of me at~                0                1
##  4         NA  22.4 (1) 1 = Not true of me at~                0                0
##  5          1  19.6 (1) 1 = Not true of me at~                0                0
##  6          5  23.0 (1) 1 = Not true of me at~                0                0
##  7          1  27.9 (1) 1 = Not true of me at~                0                0
##  8         NA  17.9 (4) 4 = 4 on a scale of 1~                0                1
##  9          1  35.7 (1) 1 = Not true of me at~                0                0
## 10         10  NA   (1) 1 = Not true of me at~                0                0
## # ... with 1,327 more rows, and 114 more variables:
## #   R01_AC1003_X.3..3...Not.at.all <dbl>, R01_AC1004_X.2..2...No <dbl>,
## #   attitude_X.2..2...Slightly.harmful <dbl>,
## #   attitude_X.3..3...Somewhat.harmful <dbl>,
## #   attitude_X.4..4...Very.harmful <dbl>,
## #   attitude_X.5..5...Extremely.harmful <dbl>, R01_AE1001_X.2..2...No <dbl>,
## #   R01_AE1002_X.2..2...No <dbl>, R01_AE1003_X.2..2...Some.days <dbl>, ...
…
